animation{
  name = "closed",
  src_image = "chests/chest.png",
  directions = {
    { x = 0, y = 16, frame_width = 16, frame_height = 16, origin_x = 8, origin_y = 13 },
  },
}
animation{
  name = "open",
  src_image = "chests/chest.png",
  directions = {
    { x = 16, y = 16, frame_width = 16, frame_height = 16, origin_x = 8, origin_y = 13 },
  },
}
