animation{
  name = "green",
  src_image = "teletransporters/teletransporter.png",
  frame_delay = 200,
  frame_to_loop_on = 0,
  directions = {
    { x = 0, y = 112, frame_width = 16, frame_height = 16, origin_x = 0, origin_y = 0, num_frames = 8 },
  },
}
